module bitbucket.org/evhivetech/checkfront

go 1.12

require (
	github.com/json-iterator/go v1.1.6
	github.com/modern-go/concurrent v0.0.0-20180306012644-bacd9c7ef1dd // indirect
	github.com/modern-go/reflect2 v1.0.1 // indirect
)
